<?xml version="1.0" encoding="UTF-8" standalone="no"?>
<svg
   xmlns:dc="http://purl.org/dc/elements/1.1/"
   xmlns:cc="http://creativecommons.org/ns#"
   xmlns:rdf="http://www.w3.org/1999/02/22-rdf-syntax-ns#"
   xmlns:svg="http://www.w3.org/2000/svg"
   xmlns="http://www.w3.org/2000/svg"
   xmlns:sodipodi="http://sodipodi.sourceforge.net/DTD/sodipodi-0.dtd"
   xmlns:inkscape="http://www.inkscape.org/namespaces/inkscape"
   width="210mm"
   height="297mm"
   viewBox="0 0 210 297"
   version="1.1"
   id="svg8"
   inkscape:version="1.0.2 (e86c870879, 2021-01-15)"
   sodipodi:docname="foto-menina.svg"
   inkscape:export-filename="/home/fabio/Desktop/luminosa/view/foto-menina-c.png"
   inkscape:export-xdpi="96"
   inkscape:export-ydpi="96" >
  <defs
     id="defs2" />
  <sodipodi:namedview
     id="base"
     pagecolor="#ffffff"
     bordercolor="#666666"
     borderopacity="1.0"
     inkscape:pageopacity="0.0"
     inkscape:pageshadow="2"
     inkscape:zoom="3.959798"
     inkscape:cx="262.15585"
     inkscape:cy="577.2775"
     inkscape:document-units="mm"
     inkscape:current-layer="g222"
     showgrid="false"
     inkscape:snap-global="false"
     inkscape:window-width="1366"
     inkscape:window-height="720"
     inkscape:window-x="0"
     inkscape:window-y="24"
     inkscape:window-maximized="1"
     inkscape:document-rotation="0" />
  <metadata
     id="metadata5" >
    <rdf:RDF>
      <cc:Work
         rdf:about="" >
        <dc:format>image/svg+xml</dc:format>
        <dc:type
           rdf:resource="http://purl.org/dc/dcmitype/StillImage" />
        <dc:title />
      </cc:Work>
    </rdf:RDF>
  </metadata>
  <g
     inkscape:label="Layer 1"
     inkscape:groupmode="layer"
     id="layer1" >
    <g
       id="g222"
       transform="matrix(0.32090343,0,0,0.35624797,42.860791,98.173501)" >
      <g
         id="g997" >
        <rect
           y="110.05512"
           x="22.176085"
           height="84.893845"
           width="81.876686"
           id="rect24"
           style="fill:#ffffff;fill-opacity:1;stroke:#ffffff;stroke-width:0.543674;stroke-miterlimit:4;stroke-dasharray:none;stroke-opacity:1" />
        <path
           inkscape:export-ydpi="96"
           inkscape:export-xdpi="96"
           style="vector-effect:none;fill:#000000;fill-opacity:1;stroke:#000000;stroke-width:0;stroke-linecap:butt;stroke-linejoin:miter;stroke-miterlimit:4;stroke-dasharray:none;stroke-dashoffset:0;stroke-opacity:1;paint-order:markers stroke fill"
           d="m 68.538358,149.28428 c -6.580899,42.12124 4.759744,36.60516 15.887209,37.80199 11.12744,1.19681 13.31723,-7.90331 13.31723,-7.90331 0,0 -7.60119,1.81301 -13.966027,-0.44201 C 73.598941,175.135 68.538307,149.28413 68.538307,149.28413 Z"
           id="path875"
           inkscape:connector-curvature="0"
           sodipodi:nodetypes="cccscc" />
        <path
           inkscape:export-ydpi="96"
           inkscape:export-xdpi="96"
           sodipodi:nodetypes="cccscc"
           inkscape:connector-curvature="0"
           id="path883"
           d="m 56.373328,150.37039 c 14.1868,39.77165 -4.644326,37.72636 -15.501957,38.95985 -10.857611,1.23346 -12.994301,-8.14539 -12.994301,-8.14539 0,0 7.416869,1.86855 13.627365,-0.45555 9.931023,-3.7164 14.868943,-30.35907 14.868943,-30.35907 z"
           style="vector-effect:none;fill:#000000;fill-opacity:1;stroke:#000000;stroke-width:0;stroke-linecap:butt;stroke-linejoin:miter;stroke-miterlimit:4;stroke-dasharray:none;stroke-dashoffset:0;stroke-opacity:1;paint-order:markers stroke fill" />
        <path
           sodipodi:nodetypes="cccccc"
           inkscape:connector-curvature="0"
           id="path849"
           d="m 97.417733,194.42147 c -8.134291,-8.73239 -26.14592,-9.08167 -26.14592,-9.08167 l -0.387349,-7.16056 -15.493874,-1e-5 v 6.81127 c 0,0 -19.367346,3.31831 -22.466121,9.60561"
           style="vector-effect:none;fill:#e9c6af;fill-opacity:1;stroke:#000000;stroke-width:0.452517;stroke-linecap:butt;stroke-linejoin:miter;stroke-miterlimit:4;stroke-dasharray:none;stroke-dashoffset:0;stroke-opacity:1" />
        <path
           inkscape:export-ydpi="96"
           inkscape:export-xdpi="96"
           sodipodi:nodetypes="cscscc"
           inkscape:connector-curvature="0"
           id="path873"
           d="m 63.078445,150.96176 c 3.647799,22.90493 19.543872,29.31648 26.675321,28.72474 11.771174,-0.97672 11.719484,-7.05255 11.719484,-7.05255 0,0 -6.76774,1.42598 -13.702856,0.41929 -10.984828,-1.59454 -24.692063,-22.0916 -24.692063,-22.0916 z"
           style="vector-effect:none;fill:#000000;fill-opacity:1;stroke:#000000;stroke-width:0;stroke-linecap:butt;stroke-linejoin:miter;stroke-miterlimit:4;stroke-dasharray:none;stroke-dashoffset:0;stroke-opacity:1;paint-order:markers stroke fill" />
        <path
           inkscape:export-ydpi="96"
           inkscape:export-xdpi="96"
           style="vector-effect:none;fill:#000000;fill-opacity:1;stroke:#000000;stroke-width:0;stroke-linecap:butt;stroke-linejoin:miter;stroke-miterlimit:4;stroke-dasharray:none;stroke-dashoffset:0;stroke-opacity:1;paint-order:markers stroke fill"
           d="m 65.339004,130.1293 c -7.440713,23.76627 3.660199,42.62772 16.025048,45.33016 12.364841,2.70242 18.124455,-8.19883 18.124455,-8.19883 0,0 -9.727178,-0.94225 -12.468237,-9.58941 -3.510573,-11.07474 -21.681323,-27.54209 -21.681323,-27.54209 z"
           id="path867"
           inkscape:connector-curvature="0"
           sodipodi:nodetypes="cccscc" />
        <path
           inkscape:export-ydpi="96"
           inkscape:export-xdpi="96"
           style="vector-effect:none;fill:#000000;fill-opacity:1;stroke:#000000;stroke-width:0;stroke-linecap:butt;stroke-linejoin:miter;stroke-miterlimit:4;stroke-dasharray:none;stroke-dashoffset:0;stroke-opacity:1;paint-order:markers stroke fill"
           d="m 61.700843,152.09925 c -3.559343,23.6065 -19.069949,30.21443 -26.028468,29.60456 -11.485735,-1.00663 -11.4353,-7.26856 -11.4353,-7.26856 0,0 6.603631,1.46965 13.370577,0.43213 10.718453,-1.64338 24.093303,-22.76826 24.093303,-22.76826 z"
           id="path885"
           inkscape:connector-curvature="0"
           sodipodi:nodetypes="cscscc" />
        <path
           inkscape:export-ydpi="96"
           inkscape:export-xdpi="96"
           sodipodi:nodetypes="cccscc"
           inkscape:connector-curvature="0"
           id="path887"
           d="m 59.4951,130.62871 c 7.260288,24.49422 -3.571442,43.93338 -15.636455,46.71859 -12.065004,2.7852 -18.3364,-8.60489 -18.3364,-8.60489 0,0 7.776472,-1.96559 9.766745,-12.48101 2.124038,-11.22215 24.206166,-25.63287 24.206166,-25.63287 z"
           style="vector-effect:none;fill:#000000;fill-opacity:1;stroke:#000000;stroke-width:0;stroke-linecap:butt;stroke-linejoin:miter;stroke-miterlimit:4;stroke-dasharray:none;stroke-dashoffset:0;stroke-opacity:1;paint-order:markers stroke fill" />
        <path
           inkscape:connector-curvature="0"
           id="path817"
           d="m 57.456837,119.06762 c -12.662955,0.11517 -20.294848,9.69172 -22.891783,19.60356 -1.923927,-2.22049 -5.857543,2.88222 -5.201138,9.3638 0.753432,6.7524 3.705131,7.50021 5.247009,7.41435 4.004506,17.16741 18.582638,23.73791 29.60275,24.19731 10.302007,0.4295 19.440893,-11.32641 22.053611,-24.54306 1.601106,-0.009 4.325933,-1.00281 5.047047,-7.42161 0.69821,-6.84717 -3.763391,-12.16014 -5.545685,-8.91952 -2.761022,-9.50824 -10.571685,-19.12502 -27.535456,-19.68999 -0.260866,-0.006 -0.519622,-0.007 -0.776355,-0.005 z"
           style="vector-effect:none;fill:#e9c6af;fill-opacity:1;stroke:#000000;stroke-width:0.441542;stroke-linecap:butt;stroke-linejoin:miter;stroke-miterlimit:4;stroke-dasharray:none;stroke-dashoffset:0;stroke-opacity:1" />
        <path
           sodipodi:nodetypes="cccsc"
           inkscape:connector-curvature="0"
           id="path821"
           d="m 51.369137,136.87654 c 3.102186,0.2135 5.716203,1.42381 6.462607,3.31301 -2.250367,1.92413 -4.154761,3.0654 -7.259808,2.97867 -3.105045,-0.0867 -6.419778,-1.79867 -6.317373,-3.20228 0.102404,-1.4036 3.218477,-3.28853 7.114574,-3.0894 z"
           style="vector-effect:none;fill:#ffffff;fill-opacity:1;stroke:#000000;stroke-width:0.348249;stroke-linecap:butt;stroke-linejoin:miter;stroke-miterlimit:4;stroke-dasharray:none;stroke-dashoffset:0;stroke-opacity:1" />
        <path
           style="vector-effect:none;fill:#ffffff;fill-opacity:1;stroke:#000000;stroke-width:0.341525;stroke-linecap:butt;stroke-linejoin:miter;stroke-miterlimit:4;stroke-dasharray:none;stroke-dashoffset:0;stroke-opacity:1"
           d="m 71.549523,136.96368 c -2.941482,0.21655 -5.420113,1.44415 -6.127864,3.36036 2.13381,1.95163 3.939571,3.10921 6.883789,3.02125 2.944208,-0.088 6.08725,-1.82438 5.990154,-3.24806 -0.09705,-1.42368 -3.051787,-3.33553 -6.746079,-3.13355 z"
           id="path825"
           inkscape:connector-curvature="0"
           sodipodi:nodetypes="cccsc" />
        <ellipse
           cy="139.98277"
           cx="50.80434"
           id="path841"
           style="vector-effect:none;fill:#000000;fill-opacity:1;fill-rule:evenodd;stroke:#000000;stroke-width:0.400877;stroke-linecap:butt;stroke-linejoin:miter;stroke-miterlimit:4;stroke-dasharray:none;stroke-dashoffset:0;stroke-opacity:1"
           rx="3.422616"
           ry="2.9326749" />
        <path
           sodipodi:nodetypes="cc"
           inkscape:connector-curvature="0"
           id="path845"
           d="m 53.115578,162.57742 c 3.258801,6.02823 15.555435,5.2822 18.673504,0.0443"
           style="vector-effect:none;fill:none;fill-opacity:1;stroke:#000000;stroke-width:0.454985;stroke-linecap:butt;stroke-linejoin:miter;stroke-miterlimit:4;stroke-dasharray:none;stroke-dashoffset:0;stroke-opacity:1" />
        <path
           sodipodi:nodetypes="cccccsc"
           inkscape:connector-curvature="0"
           id="path852"
           d="m 81.342337,194.24293 c -1.355666,-1.9422 0,-7.59224 0,-7.59224 0,0 -2.517682,-0.88281 -7.359367,-1.4125 0.774668,3.53127 -6.003691,6.70942 -12.201054,6.17972 -6.197358,-0.52968 -8.521369,-6.17972 -8.521369,-6.17972 0,0 -6.391025,1.23595 -6.778361,2.11876 -0.387335,0.88282 1.162005,3.88441 0.387336,7.06256"
           style="vector-effect:none;fill:#0000ff;fill-opacity:1;stroke:#000000;stroke-width:0.454985;stroke-linecap:butt;stroke-linejoin:miter;stroke-miterlimit:4;stroke-dasharray:none;stroke-dashoffset:0;stroke-opacity:1" />
        <path
           style="vector-effect:none;fill:none;fill-opacity:1;stroke:#000000;stroke-width:0.829737;stroke-linecap:butt;stroke-linejoin:miter;stroke-miterlimit:4;stroke-dasharray:none;stroke-dashoffset:0;stroke-opacity:1"
           d="m 79.078457,134.07409 c -3.57091,-3.68632 -12.765625,-2.40213 -14.522327,0.63955"
           id="path879"
           inkscape:connector-curvature="0"
           sodipodi:nodetypes="cc" />
        <path
           inkscape:export-ydpi="96"
           inkscape:export-xdpi="96"
           sodipodi:nodetypes="cscscc"
           inkscape:connector-curvature="0"
           id="path863"
           d="m 79.437379,164.26779 c 20.579061,-9.35787 13.090331,-38.7358 -0.142086,-45.70546 -18.726309,-9.86336 -19.365473,0.91439 -19.365473,0.91439 0,0 11.209994,1.87431 16.289269,6.7152 4.134785,3.94073 14.997082,21.55093 3.218321,38.07587 z"
           style="vector-effect:none;fill:#000000;fill-opacity:1;stroke:#000000;stroke-width:0;stroke-linecap:butt;stroke-linejoin:miter;stroke-miterlimit:4;stroke-dasharray:none;stroke-dashoffset:0;stroke-opacity:1;paint-order:markers stroke fill" />
        <path
           sodipodi:nodetypes="cc"
           inkscape:connector-curvature="0"
           id="path881"
           d="m 41.403068,132.7255 c 3.842406,-2.48889 11.982652,-2.82583 15.694426,1.5286"
           style="vector-effect:none;fill:none;fill-opacity:1;stroke:#000000;stroke-width:0.829737;stroke-linecap:butt;stroke-linejoin:miter;stroke-miterlimit:4;stroke-dasharray:none;stroke-dashoffset:0;stroke-opacity:1" />
        <path
           inkscape:export-ydpi="96"
           inkscape:export-xdpi="96"
           style="vector-effect:none;fill:#000000;fill-opacity:1;stroke:#000000;stroke-width:0;stroke-linecap:butt;stroke-linejoin:miter;stroke-miterlimit:4;stroke-dasharray:none;stroke-dashoffset:0;stroke-opacity:1;paint-order:markers stroke fill"
           d="m 41.818886,164.89718 c -20.132499,-6.56807 -19.396159,-38.63812 -4.512575,-46.71646 14.883582,-8.07831 23.142453,1.23502 23.142453,1.23502 0,0 -10.957127,2.62427 -18.241266,9.19264 -4.163387,3.75428 -12.452624,20.15812 -0.388612,36.2888 z"
           id="path865"
           inkscape:connector-curvature="0"
           sodipodi:nodetypes="cccsc" />
        <path
           style="vector-effect:none;fill:none;fill-opacity:1;stroke:#000000;stroke-width:0.178184;stroke-linecap:butt;stroke-linejoin:miter;stroke-miterlimit:4;stroke-dasharray:none;stroke-dashoffset:0;stroke-opacity:1"
           d="m 58.887788,151.68647 c 0.564525,2.59656 5.080724,3.56273 6.079506,-0.18115"
           id="path846"
           inkscape:connector-curvature="0"
           sodipodi:nodetypes="cc" />
        <ellipse
           cy="140.15306"
           cx="71.934608"
           id="ellipse48"
           style="vector-effect:none;fill:#000000;fill-opacity:1;fill-rule:evenodd;stroke:#000000;stroke-width:0.400877;stroke-linecap:butt;stroke-linejoin:miter;stroke-miterlimit:4;stroke-dasharray:none;stroke-dashoffset:0;stroke-opacity:1"
           rx="3.422616"
           ry="2.9326749" />
      </g>
    </g>
  </g>
</svg>
